sample.interval=20000
".Fortran" "do_one" "kmeans" "eval" "eval" "withVisible" "source" 
".Fortran" "do_one" "kmeans" "eval" "eval" "withVisible" "source" 
".Fortran" "do_one" "kmeans" "eval" "eval" "withVisible" "source" 
".Fortran" "do_one" "kmeans" "eval" "eval" "withVisible" "source" 
".Fortran" "do_one" "kmeans" "eval" "eval" "withVisible" "source" 
".Fortran" "do_one" "kmeans" "eval" "eval" "withVisible" "source" 
".Fortran" "do_one" "kmeans" "eval" "eval" "withVisible" "source" 
".Fortran" "do_one" "kmeans" "eval" "eval" "withVisible" "source" 
".Fortran" "do_one" "kmeans" "eval" "eval" "withVisible" "source" 
".Fortran" "do_one" "kmeans" "eval" "eval" "withVisible" "source" 
".Fortran" "do_one" "kmeans" "eval" "eval" "withVisible" "source" 
".Fortran" "do_one" "kmeans" "eval" "eval" "withVisible" "source" 
".Fortran" "do_one" "kmeans" "eval" "eval" "withVisible" "source" 
".Fortran" "do_one" "kmeans" "eval" "eval" "withVisible" "source" 
".Fortran" "do_one" "kmeans" "eval" "eval" "withVisible" "source" 
".Fortran" "do_one" "kmeans" "eval" "eval" "withVisible" "source" 
".Fortran" "do_one" "kmeans" "eval" "eval" "withVisible" "source" 
".Fortran" "do_one" "kmeans" "eval" "eval" "withVisible" "source" 
".Fortran" "do_one" "kmeans" "eval" "eval" "withVisible" "source" 
".Fortran" "do_one" "kmeans" "eval" "eval" "withVisible" "source" 
".Fortran" "do_one" "kmeans" "eval" "eval" "withVisible" "source" 
".Fortran" "do_one" "kmeans" "eval" "eval" "withVisible" "source" 
".Fortran" "do_one" "kmeans" "eval" "eval" "withVisible" "source" 
".Fortran" "do_one" "kmeans" "eval" "eval" "withVisible" "source" 
".Fortran" "do_one" "kmeans" "eval" "eval" "withVisible" "source" 
".Fortran" "do_one" "kmeans" "eval" "eval" "withVisible" "source" 
".Fortran" "do_one" "kmeans" "eval" "eval" "withVisible" "source" 
".Fortran" "do_one" "kmeans" "eval" "eval" "withVisible" "source" 
".Fortran" "do_one" "kmeans" "eval" "eval" "withVisible" "source" 
".Fortran" "do_one" "kmeans" "eval" "eval" "withVisible" "source" 
".Fortran" "do_one" "kmeans" "eval" "eval" "withVisible" "source" 
".Fortran" "do_one" "kmeans" "eval" "eval" "withVisible" "source" 
".Fortran" "do_one" "kmeans" "eval" "eval" "withVisible" "source" 
".Fortran" "do_one" "kmeans" "eval" "eval" "withVisible" "source" 
".Fortran" "do_one" "kmeans" "eval" "eval" "withVisible" "source" 
".Fortran" "do_one" "kmeans" "eval" "eval" "withVisible" "source" 
".Fortran" "do_one" "kmeans" "eval" "eval" "withVisible" "source" 
".Fortran" "do_one" "kmeans" "eval" "eval" "withVisible" "source" 
".Fortran" "do_one" "kmeans" "eval" "eval" "withVisible" "source" 
".Fortran" "do_one" "kmeans" "eval" "eval" "withVisible" "source" 
".Fortran" "do_one" "kmeans" "eval" "eval" "withVisible" "source" 
".Fortran" "do_one" "kmeans" "eval" "eval" "withVisible" "source" 
".Fortran" "do_one" "kmeans" "eval" "eval" "withVisible" "source" 
".Fortran" "do_one" "kmeans" "eval" "eval" "withVisible" "source" 
".Fortran" "do_one" "kmeans" "eval" "eval" "withVisible" "source" 
".Fortran" "do_one" "kmeans" "eval" "eval" "withVisible" "source" 
".Fortran" "do_one" "kmeans" "eval" "eval" "withVisible" "source" 
".Fortran" "do_one" "kmeans" "eval" "eval" "withVisible" "source" 
".Fortran" "do_one" "kmeans" "eval" "eval" "withVisible" "source" 
".Fortran" "do_one" "kmeans" "eval" "eval" "withVisible" "source" 
".Fortran" "do_one" "kmeans" "eval" "eval" "withVisible" "source" 
".Fortran" "do_one" "kmeans" "eval" "eval" "withVisible" "source" 
".Fortran" "do_one" "kmeans" "eval" "eval" "withVisible" "source" 
".Fortran" "do_one" "kmeans" "eval" "eval" "withVisible" "source" 
".Fortran" "do_one" "kmeans" "eval" "eval" "withVisible" "source" 
".Fortran" "do_one" "kmeans" "eval" "eval" "withVisible" "source" 
".Fortran" "do_one" "kmeans" "eval" "eval" "withVisible" "source" 
".Fortran" "do_one" "kmeans" "eval" "eval" "withVisible" "source" 
".Fortran" "do_one" "kmeans" "eval" "eval" "withVisible" "source" 
".Fortran" "do_one" "kmeans" "eval" "eval" "withVisible" "source" 
".Fortran" "do_one" "kmeans" "eval" "eval" "withVisible" "source" 
".Fortran" "do_one" "kmeans" "eval" "eval" "withVisible" "source" 
".Fortran" "do_one" "kmeans" "eval" "eval" "withVisible" "source" 
".Fortran" "do_one" "kmeans" "eval" "eval" "withVisible" "source" 
".Fortran" "do_one" "kmeans" "eval" "eval" "withVisible" "source" 
".Fortran" "do_one" "kmeans" "eval" "eval" "withVisible" "source" 
".Fortran" "do_one" "kmeans" "eval" "eval" "withVisible" "source" 
".Fortran" "do_one" "kmeans" "eval" "eval" "withVisible" "source" 
".Fortran" "do_one" "kmeans" "eval" "eval" "withVisible" "source" 
".Fortran" "do_one" "kmeans" "eval" "eval" "withVisible" "source" 
".Fortran" "do_one" "kmeans" "eval" "eval" "withVisible" "source" 
".Fortran" "do_one" "kmeans" "eval" "eval" "withVisible" "source" 
".Fortran" "do_one" "kmeans" "eval" "eval" "withVisible" "source" 
".Fortran" "do_one" "kmeans" "eval" "eval" "withVisible" "source" 
".Fortran" "do_one" "kmeans" "eval" "eval" "withVisible" "source" 
".Fortran" "do_one" "kmeans" "eval" "eval" "withVisible" "source" 
".Fortran" "do_one" "kmeans" "eval" "eval" "withVisible" "source" 
".Fortran" "do_one" "kmeans" "eval" "eval" "withVisible" "source" 
".Fortran" "do_one" "kmeans" "eval" "eval" "withVisible" "source" 
".Fortran" "do_one" "kmeans" "eval" "eval" "withVisible" "source" 
".Fortran" "do_one" "kmeans" "eval" "eval" "withVisible" "source" 
".Fortran" "do_one" "kmeans" "eval" "eval" "withVisible" "source" 
".Fortran" "do_one" "kmeans" "eval" "eval" "withVisible" "source" 
".Fortran" "do_one" "kmeans" "eval" "eval" "withVisible" "source" 
".Fortran" "do_one" "kmeans" "eval" "eval" "withVisible" "source" 
".Fortran" "do_one" "kmeans" "eval" "eval" "withVisible" "source" 
".Fortran" "do_one" "kmeans" "eval" "eval" "withVisible" "source" 
".Fortran" "do_one" "kmeans" "eval" "eval" "withVisible" "source" 
".Fortran" "do_one" "kmeans" "eval" "eval" "withVisible" "source" 
".Fortran" "do_one" "kmeans" "eval" "eval" "withVisible" "source" 
".Fortran" "do_one" "kmeans" "eval" "eval" "withVisible" "source" 
".Fortran" "do_one" "kmeans" "eval" "eval" "withVisible" "source" 
".Fortran" "do_one" "kmeans" "eval" "eval" "withVisible" "source" 
".Fortran" "do_one" "kmeans" "eval" "eval" "withVisible" "source" 
".Fortran" "do_one" "kmeans" "eval" "eval" "withVisible" "source" 
".Fortran" "do_one" "kmeans" "eval" "eval" "withVisible" "source" 
".Fortran" "do_one" "kmeans" "eval" "eval" "withVisible" "source" 
".Fortran" "do_one" "kmeans" "eval" "eval" "withVisible" "source" 
".Fortran" "do_one" "kmeans" "eval" "eval" "withVisible" "source" 
".Fortran" "do_one" "kmeans" "eval" "eval" "withVisible" "source" 
".Fortran" "do_one" "kmeans" "eval" "eval" "withVisible" "source" 
"double" "do_one" "kmeans" "eval" "eval" "withVisible" "source" 
".Fortran" "do_one" "kmeans" "eval" "eval" "withVisible" "source" 
".Fortran" "do_one" "kmeans" "eval" "eval" "withVisible" "source" 
".Fortran" "do_one" "kmeans" "eval" "eval" "withVisible" "source" 
".Fortran" "do_one" "kmeans" "eval" "eval" "withVisible" "source" 
".Fortran" "do_one" "kmeans" "eval" "eval" "withVisible" "source" 
".Fortran" "do_one" "kmeans" "eval" "eval" "withVisible" "source" 
".Fortran" "do_one" "kmeans" "eval" "eval" "withVisible" "source" 
".Fortran" "do_one" "kmeans" "eval" "eval" "withVisible" "source" 
".Fortran" "do_one" "kmeans" "eval" "eval" "withVisible" "source" 
".Fortran" "do_one" "kmeans" "eval" "eval" "withVisible" "source" 
".Fortran" "do_one" "kmeans" "eval" "eval" "withVisible" "source" 
".Fortran" "do_one" "kmeans" "eval" "eval" "withVisible" "source" 
".Fortran" "do_one" "kmeans" "eval" "eval" "withVisible" "source" 
".Fortran" "do_one" "kmeans" "eval" "eval" "withVisible" "source" 
".Fortran" "do_one" "kmeans" "eval" "eval" "withVisible" "source" 
".Fortran" "do_one" "kmeans" "eval" "eval" "withVisible" "source" 
".Fortran" "do_one" "kmeans" "eval" "eval" "withVisible" "source" 
".Fortran" "do_one" "kmeans" "eval" "eval" "withVisible" "source" 
".Fortran" "do_one" "kmeans" "eval" "eval" "withVisible" "source" 
".Fortran" "do_one" "kmeans" "eval" "eval" "withVisible" "source" 
".Fortran" "do_one" "kmeans" "eval" "eval" "withVisible" "source" 
".Fortran" "do_one" "kmeans" "eval" "eval" "withVisible" "source" 
".Fortran" "do_one" "kmeans" "eval" "eval" "withVisible" "source" 
".Fortran" "do_one" "kmeans" "eval" "eval" "withVisible" "source" 
".Fortran" "do_one" "kmeans" "eval" "eval" "withVisible" "source" 
".Fortran" "do_one" "kmeans" "eval" "eval" "withVisible" "source" 
".Fortran" "do_one" "kmeans" "eval" "eval" "withVisible" "source" 
".Fortran" "do_one" "kmeans" "eval" "eval" "withVisible" "source" 
".Fortran" "do_one" "kmeans" "eval" "eval" "withVisible" "source" 
".Fortran" "do_one" "kmeans" "eval" "eval" "withVisible" "source" 
".Fortran" "do_one" "kmeans" "eval" "eval" "withVisible" "source" 
".Fortran" "do_one" "kmeans" "eval" "eval" "withVisible" "source" 
".Fortran" "do_one" "kmeans" "eval" "eval" "withVisible" "source" 
".Fortran" "do_one" "kmeans" "eval" "eval" "withVisible" "source" 
".Fortran" "do_one" "kmeans" "eval" "eval" "withVisible" "source" 
".Fortran" "do_one" "kmeans" "eval" "eval" "withVisible" "source" 
".Fortran" "do_one" "kmeans" "eval" "eval" "withVisible" "source" 
".Fortran" "do_one" "kmeans" "eval" "eval" "withVisible" "source" 
".Fortran" "do_one" "kmeans" "eval" "eval" "withVisible" "source" 
".Fortran" "do_one" "kmeans" "eval" "eval" "withVisible" "source" 
"kmeans" "eval" "eval" "withVisible" "source" 
".Fortran" "do_one" "kmeans" "eval" "eval" "withVisible" "source" 
".Fortran" "do_one" "kmeans" "eval" "eval" "withVisible" "source" 
".Fortran" "do_one" "kmeans" "eval" "eval" "withVisible" "source" 
".Fortran" "do_one" "kmeans" "eval" "eval" "withVisible" "source" 
".Fortran" "do_one" "kmeans" "eval" "eval" "withVisible" "source" 
".Fortran" "do_one" "kmeans" "eval" "eval" "withVisible" "source" 
".Fortran" "do_one" "kmeans" "eval" "eval" "withVisible" "source" 
".Fortran" "do_one" "kmeans" "eval" "eval" "withVisible" "source" 
".Fortran" "do_one" "kmeans" "eval" "eval" "withVisible" "source" 
".Fortran" "do_one" "kmeans" "eval" "eval" "withVisible" "source" 
".Fortran" "do_one" "kmeans" "eval" "eval" "withVisible" "source" 
".Fortran" "do_one" "kmeans" "eval" "eval" "withVisible" "source" 
".Fortran" "do_one" "kmeans" "eval" "eval" "withVisible" "source" 
".Fortran" "do_one" "kmeans" "eval" "eval" "withVisible" "source" 
".Fortran" "do_one" "kmeans" "eval" "eval" "withVisible" "source" 
".Fortran" "do_one" "kmeans" "eval" "eval" "withVisible" "source" 
".Fortran" "do_one" "kmeans" "eval" "eval" "withVisible" "source" 
".Fortran" "do_one" "kmeans" "eval" "eval" "withVisible" "source" 
".Fortran" "do_one" "kmeans" "eval" "eval" "withVisible" "source" 
".Fortran" "do_one" "kmeans" "eval" "eval" "withVisible" "source" 
".Fortran" "do_one" "kmeans" "eval" "eval" "withVisible" "source" 
".Fortran" "do_one" "kmeans" "eval" "eval" "withVisible" "source" 
".Fortran" "do_one" "kmeans" "eval" "eval" "withVisible" "source" 
".Fortran" "do_one" "kmeans" "eval" "eval" "withVisible" "source" 
".Fortran" "do_one" "kmeans" "eval" "eval" "withVisible" "source" 
".Fortran" "do_one" "kmeans" "eval" "eval" "withVisible" "source" 
".Fortran" "do_one" "kmeans" "eval" "eval" "withVisible" "source" 
".Fortran" "do_one" "kmeans" "eval" "eval" "withVisible" "source" 
".Fortran" "do_one" "kmeans" "eval" "eval" "withVisible" "source" 
".Fortran" "do_one" "kmeans" "eval" "eval" "withVisible" "source" 
".Fortran" "do_one" "kmeans" "eval" "eval" "withVisible" "source" 
".Fortran" "do_one" "kmeans" "eval" "eval" "withVisible" "source" 
".Fortran" "do_one" "kmeans" "eval" "eval" "withVisible" "source" 
".Fortran" "do_one" "kmeans" "eval" "eval" "withVisible" "source" 
".Fortran" "do_one" "kmeans" "eval" "eval" "withVisible" "source" 
".Fortran" "do_one" "kmeans" "eval" "eval" "withVisible" "source" 
".Fortran" "do_one" "kmeans" "eval" "eval" "withVisible" "source" 
".Fortran" "do_one" "kmeans" "eval" "eval" "withVisible" "source" 
".Fortran" "do_one" "kmeans" "eval" "eval" "withVisible" "source" 
".Fortran" "do_one" "kmeans" "eval" "eval" "withVisible" "source" 
".Fortran" "do_one" "kmeans" "eval" "eval" "withVisible" "source" 
".Fortran" "do_one" "kmeans" "eval" "eval" "withVisible" "source" 
".Fortran" "do_one" "kmeans" "eval" "eval" "withVisible" "source" 
".Fortran" "do_one" "kmeans" "eval" "eval" "withVisible" "source" 
".Fortran" "do_one" "kmeans" "eval" "eval" "withVisible" "source" 
".Fortran" "do_one" "kmeans" "eval" "eval" "withVisible" "source" 
".Fortran" "do_one" "kmeans" "eval" "eval" "withVisible" "source" 
".Fortran" "do_one" "kmeans" "eval" "eval" "withVisible" "source" 
".Fortran" "do_one" "kmeans" "eval" "eval" "withVisible" "source" 
".Fortran" "do_one" "kmeans" "eval" "eval" "withVisible" "source" 
".Fortran" "do_one" "kmeans" "eval" "eval" "withVisible" "source" 
".Fortran" "do_one" "kmeans" "eval" "eval" "withVisible" "source" 
".Fortran" "do_one" "kmeans" "eval" "eval" "withVisible" "source" 
".Fortran" "do_one" "kmeans" "eval" "eval" "withVisible" "source" 
".Fortran" "do_one" "kmeans" "eval" "eval" "withVisible" "source" 
".Fortran" "do_one" "kmeans" "eval" "eval" "withVisible" "source" 
".Fortran" "do_one" "kmeans" "eval" "eval" "withVisible" "source" 
".Fortran" "do_one" "kmeans" "eval" "eval" "withVisible" "source" 
".Fortran" "do_one" "kmeans" "eval" "eval" "withVisible" "source" 
".Fortran" "do_one" "kmeans" "eval" "eval" "withVisible" "source" 
".Fortran" "do_one" "kmeans" "eval" "eval" "withVisible" "source" 
".Fortran" "do_one" "kmeans" "eval" "eval" "withVisible" "source" 
".Fortran" "do_one" "kmeans" "eval" "eval" "withVisible" "source" 
".Fortran" "do_one" "kmeans" "eval" "eval" "withVisible" "source" 
".Fortran" "do_one" "kmeans" "eval" "eval" "withVisible" "source" 
".Fortran" "do_one" "kmeans" "eval" "eval" "withVisible" "source" 
".Fortran" "do_one" "kmeans" "eval" "eval" "withVisible" "source" 
".Fortran" "do_one" "kmeans" "eval" "eval" "withVisible" "source" 
".Fortran" "do_one" "kmeans" "eval" "eval" "withVisible" "source" 
".Fortran" "do_one" "kmeans" "eval" "eval" "withVisible" "source" 
".Fortran" "do_one" "kmeans" "eval" "eval" "withVisible" "source" 
".Fortran" "do_one" "kmeans" "eval" "eval" "withVisible" "source" 
".Fortran" "do_one" "kmeans" "eval" "eval" "withVisible" "source" 
".Fortran" "do_one" "kmeans" "eval" "eval" "withVisible" "source" 
".Fortran" "do_one" "kmeans" "eval" "eval" "withVisible" "source" 
".Fortran" "do_one" "kmeans" "eval" "eval" "withVisible" "source" 
".Fortran" "do_one" "kmeans" "eval" "eval" "withVisible" "source" 
".Fortran" "do_one" "kmeans" "eval" "eval" "withVisible" "source" 
".Fortran" "do_one" "kmeans" "eval" "eval" "withVisible" "source" 
".Fortran" "do_one" "kmeans" "eval" "eval" "withVisible" "source" 
".Fortran" "do_one" "kmeans" "eval" "eval" "withVisible" "source" 
".Fortran" "do_one" "kmeans" "eval" "eval" "withVisible" "source" 
".Fortran" "do_one" "kmeans" "eval" "eval" "withVisible" "source" 
".Fortran" "do_one" "kmeans" "eval" "eval" "withVisible" "source" 
".Fortran" "do_one" "kmeans" "eval" "eval" "withVisible" "source" 
".Fortran" "do_one" "kmeans" "eval" "eval" "withVisible" "source" 
".Fortran" "do_one" "kmeans" "eval" "eval" "withVisible" "source" 
".Fortran" "do_one" "kmeans" "eval" "eval" "withVisible" "source" 
".Fortran" "do_one" "kmeans" "eval" "eval" "withVisible" "source" 
".Fortran" "do_one" "kmeans" "eval" "eval" "withVisible" "source" 
".Fortran" "do_one" "kmeans" "eval" "eval" "withVisible" "source" 
".Fortran" "do_one" "kmeans" "eval" "eval" "withVisible" "source" 
".Fortran" "do_one" "kmeans" "eval" "eval" "withVisible" "source" 
".Fortran" "do_one" "kmeans" "eval" "eval" "withVisible" "source" 
".Fortran" "do_one" "kmeans" "eval" "eval" "withVisible" "source" 
".Fortran" "do_one" "kmeans" "eval" "eval" "withVisible" "source" 
".Fortran" "do_one" "kmeans" "eval" "eval" "withVisible" "source" 
".Fortran" "do_one" "kmeans" "eval" "eval" "withVisible" "source" 
".Fortran" "do_one" "kmeans" "eval" "eval" "withVisible" "source" 
".Fortran" "do_one" "kmeans" "eval" "eval" "withVisible" "source" 
".Fortran" "do_one" "kmeans" "eval" "eval" "withVisible" "source" 
".Fortran" "do_one" "kmeans" "eval" "eval" "withVisible" "source" 
".Fortran" "do_one" "kmeans" "eval" "eval" "withVisible" "source" 
".Fortran" "do_one" "kmeans" "eval" "eval" "withVisible" "source" 
".Fortran" "do_one" "kmeans" "eval" "eval" "withVisible" "source" 
".Fortran" "do_one" "kmeans" "eval" "eval" "withVisible" "source" 
".Fortran" "do_one" "kmeans" "eval" "eval" "withVisible" "source" 
".Fortran" "do_one" "kmeans" "eval" "eval" "withVisible" "source" 
".Fortran" "do_one" "kmeans" "eval" "eval" "withVisible" "source" 
".Fortran" "do_one" "kmeans" "eval" "eval" "withVisible" "source" 
".Fortran" "do_one" "kmeans" "eval" "eval" "withVisible" "source" 
".Fortran" "do_one" "kmeans" "eval" "eval" "withVisible" "source" 
".Fortran" "do_one" "kmeans" "eval" "eval" "withVisible" "source" 
".Fortran" "do_one" "kmeans" "eval" "eval" "withVisible" "source" 
".Fortran" "do_one" "kmeans" "eval" "eval" "withVisible" "source" 
".Fortran" "do_one" "kmeans" "eval" "eval" "withVisible" "source" 
".Fortran" "do_one" "kmeans" "eval" "eval" "withVisible" "source" 
".Fortran" "do_one" "kmeans" "eval" "eval" "withVisible" "source" 
".Fortran" "do_one" "kmeans" "eval" "eval" "withVisible" "source" 
".Fortran" "do_one" "kmeans" "eval" "eval" "withVisible" "source" 
".Fortran" "do_one" "kmeans" "eval" "eval" "withVisible" "source" 
".Fortran" "do_one" "kmeans" "eval" "eval" "withVisible" "source" 
".Fortran" "do_one" "kmeans" "eval" "eval" "withVisible" "source" 
".Fortran" "do_one" "kmeans" "eval" "eval" "withVisible" "source" 
".Fortran" "do_one" "kmeans" "eval" "eval" "withVisible" "source" 
".Fortran" "do_one" "kmeans" "eval" "eval" "withVisible" "source" 
".Fortran" "do_one" "kmeans" "eval" "eval" "withVisible" "source" 
".Fortran" "do_one" "kmeans" "eval" "eval" "withVisible" "source" 
".Fortran" "do_one" "kmeans" "eval" "eval" "withVisible" "source" 
".Fortran" "do_one" "kmeans" "eval" "eval" "withVisible" "source" 
".Fortran" "do_one" "kmeans" "eval" "eval" "withVisible" "source" 
".Fortran" "do_one" "kmeans" "eval" "eval" "withVisible" "source" 
".Fortran" "do_one" "kmeans" "eval" "eval" "withVisible" "source" 
".Fortran" "do_one" "kmeans" "eval" "eval" "withVisible" "source" 
".Fortran" "do_one" "kmeans" "eval" "eval" "withVisible" "source" 
".Fortran" "do_one" "kmeans" "eval" "eval" "withVisible" "source" 
".Fortran" "do_one" "kmeans" "eval" "eval" "withVisible" "source" 
".Fortran" "do_one" "kmeans" "eval" "eval" "withVisible" "source" 
".Fortran" "do_one" "kmeans" "eval" "eval" "withVisible" "source" 
".Fortran" "do_one" "kmeans" "eval" "eval" "withVisible" "source" 
".Fortran" "do_one" "kmeans" "eval" "eval" "withVisible" "source" 
".Fortran" "do_one" "kmeans" "eval" "eval" "withVisible" "source" 
".Fortran" "do_one" "kmeans" "eval" "eval" "withVisible" "source" 
".Fortran" "do_one" "kmeans" "eval" "eval" "withVisible" "source" 
".Fortran" "do_one" "kmeans" "eval" "eval" "withVisible" "source" 
".Fortran" "do_one" "kmeans" "eval" "eval" "withVisible" "source" 
".Fortran" "do_one" "kmeans" "eval" "eval" "withVisible" "source" 
".Fortran" "do_one" "kmeans" "eval" "eval" "withVisible" "source" 
".Fortran" "do_one" "kmeans" "eval" "eval" "withVisible" "source" 
".Fortran" "do_one" "kmeans" "eval" "eval" "withVisible" "source" 
".Fortran" "do_one" "kmeans" "eval" "eval" "withVisible" "source" 
".Fortran" "do_one" "kmeans" "eval" "eval" "withVisible" "source" 
".Fortran" "do_one" "kmeans" "eval" "eval" "withVisible" "source" 
".Fortran" "do_one" "kmeans" "eval" "eval" "withVisible" "source" 
".Fortran" "do_one" "kmeans" "eval" "eval" "withVisible" "source" 
".Fortran" "do_one" "kmeans" "eval" "eval" "withVisible" "source" 
".Fortran" "do_one" "kmeans" "eval" "eval" "withVisible" "source" 
".Fortran" "do_one" "kmeans" "eval" "eval" "withVisible" "source" 
".Fortran" "do_one" "kmeans" "eval" "eval" "withVisible" "source" 
".Fortran" "do_one" "kmeans" "eval" "eval" "withVisible" "source" 
".Fortran" "do_one" "kmeans" "eval" "eval" "withVisible" "source" 
".Fortran" "do_one" "kmeans" "eval" "eval" "withVisible" "source" 
".Fortran" "do_one" "kmeans" "eval" "eval" "withVisible" "source" 
".Fortran" "do_one" "kmeans" "eval" "eval" "withVisible" "source" 
".Fortran" "do_one" "kmeans" "eval" "eval" "withVisible" "source" 
".Fortran" "do_one" "kmeans" "eval" "eval" "withVisible" "source" 
"integer" "do_one" "kmeans" "eval" "eval" "withVisible" "source" 
".Fortran" "do_one" "kmeans" "eval" "eval" "withVisible" "source" 
".Fortran" "do_one" "kmeans" "eval" "eval" "withVisible" "source" 
".Fortran" "do_one" "kmeans" "eval" "eval" "withVisible" "source" 
".Fortran" "do_one" "kmeans" "eval" "eval" "withVisible" "source" 
".Fortran" "do_one" "kmeans" "eval" "eval" "withVisible" "source" 
".Fortran" "do_one" "kmeans" "eval" "eval" "withVisible" "source" 
".Fortran" "do_one" "kmeans" "eval" "eval" "withVisible" "source" 
".Fortran" "do_one" "kmeans" "eval" "eval" "withVisible" "source" 
".Fortran" "do_one" "kmeans" "eval" "eval" "withVisible" "source" 
".Fortran" "do_one" "kmeans" "eval" "eval" "withVisible" "source" 
".Fortran" "do_one" "kmeans" "eval" "eval" "withVisible" "source" 
".Fortran" "do_one" "kmeans" "eval" "eval" "withVisible" "source" 
".Fortran" "do_one" "kmeans" "eval" "eval" "withVisible" "source" 
".Fortran" "do_one" "kmeans" "eval" "eval" "withVisible" "source" 
".Fortran" "do_one" "kmeans" "eval" "eval" "withVisible" "source" 
"sample.int" "kmeans" "eval" "eval" "withVisible" "source" 
".Fortran" "do_one" "kmeans" "eval" "eval" "withVisible" "source" 
".Fortran" "do_one" "kmeans" "eval" "eval" "withVisible" "source" 
".Fortran" "do_one" "kmeans" "eval" "eval" "withVisible" "source" 
".Fortran" "do_one" "kmeans" "eval" "eval" "withVisible" "source" 
".Fortran" "do_one" "kmeans" "eval" "eval" "withVisible" "source" 
".Fortran" "do_one" "kmeans" "eval" "eval" "withVisible" "source" 
".Fortran" "do_one" "kmeans" "eval" "eval" "withVisible" "source" 
